<svg width="16" height="20" viewBox="0 0 16 20" fill="none" xmlns="http://www.w3.org/2000/svg">
<path d="M14.001 8.27998C14.001 4.84009 11.2709 2.05542 7.83102 2.00082C4.50034 1.94622 1.60646 4.62169 1.44266 7.95237C1.38806 9.31741 1.77027 10.6278 2.42548 11.6653L2.48009 11.7199C2.48009 11.7745 5.04635 15.3782 6.57519 17.5622C7.1212 18.3812 8.32243 18.3812 8.92305 17.5622C10.4519 15.3782 12.9636 11.7199 13.0182 11.6653L13.0728 11.6107C13.6188 10.6824 14.001 9.53581 14.001 8.27998Z" stroke="#DDDDDD" stroke-width="2.5" stroke-miterlimit="10"/>
<path d="M9.08818 9.64284C9.84259 8.88843 9.84259 7.66529 9.08818 6.91087C8.33377 6.15646 7.11063 6.15646 6.35622 6.91087C5.6018 7.66528 5.6018 8.88843 6.35622 9.64284C7.11063 10.3972 8.33377 10.3972 9.08818 9.64284Z" fill="#DDDDDD"/>
</svg>
